{   "message": {    "date": 1465728227,
                    "text": "/start dfghfg srthrth",
                    "from": {   "first_name": "Vitaliy",
                                "last_name": "Kopachov",
                                "id": 142315803
                            },
                    "message_id": 163,
                    "chat": {   "first_name": "Vitaliy",
                                "last_name": "Kopachov",
                                "type": "private",
                                "id": 142315803
                            }
                },
    "update_id": 285486039

  "message":{   "message_id":414,
                "from":{    "id":158551241,
                            "first_name":"Iriska",
                            "last_name":"Iris"
                        },
                "chat":{  "id":158551241,
                          "first_name":"Iriska",
                          "last_name":"Iris",
                          "type":"private"
                        },
                "date":1466347703,
                "text":"Kiss you, too."
            }


}
